; RUN: llvm-as < %s | llc -march=thumb -mattr=+thumb2 | grep {teq\\W*r\[0-9\],\\W*#\[0-9\]*} | grep {#187\\|#11141290\\|#3422604288\\|#1114112\\|#3722304989} | count 10

; 0x000000bb = 187
define i1 @f1(i32 %a) {
    %tmp = xor i32 %a, 187
    %tmp1 = icmp ne i32 %tmp, 0
    ret i1 %tmp1
}

; 0x000000bb = 187
define i1 @f2(i32 %a) {
    %tmp = xor i32 %a, 187
    %tmp1 = icmp eq i32 0, %tmp
    ret i1 %tmp1
}

; 0x00aa00aa = 11141290
define i1 @f3(i32 %a) {
    %tmp = xor i32 %a, 11141290 
    %tmp1 = icmp eq i32 %tmp, 0
    ret i1 %tmp1
}

; 0x00aa00aa = 11141290
define i1 @f4(i32 %a) {
    %tmp = xor i32 %a, 11141290 
    %tmp1 = icmp ne i32 0, %tmp
    ret i1 %tmp1
}

; 0xcc00cc00 = 3422604288
define i1 @f5(i32 %a) {
    %tmp = xor i32 %a, 3422604288
    %tmp1 = icmp ne i32 %tmp, 0
    ret i1 %tmp1
}

; 0xcc00cc00 = 3422604288
define i1 @f6(i32 %a) {
    %tmp = xor i32 %a, 3422604288
    %tmp1 = icmp eq i32 0, %tmp
    ret i1 %tmp1
}

; 0xdddddddd = 3722304989
define i1 @f7(i32 %a) {
    %tmp = xor i32 %a, 3722304989
    %tmp1 = icmp eq i32 %tmp, 0
    ret i1 %tmp1
}

; 0xdddddddd = 3722304989
define i1 @f8(i32 %a) {
    %tmp = xor i32 %a, 3722304989
    %tmp1 = icmp ne i32 0, %tmp
    ret i1 %tmp1
}

; 0x00110000 = 1114112
define i1 @f9(i32 %a) {
    %tmp = xor i32 %a, 1114112
    %tmp1 = icmp ne i32 %tmp, 0
    ret i1 %tmp1
}

; 0x00110000 = 1114112
define i1 @f10(i32 %a) {
    %tmp = xor i32 %a, 1114112
    %tmp1 = icmp eq i32 0, %tmp
    ret i1 %tmp1
}
