; RUN: llvm-as < %s | llc -march=x86 -mtriple=i386-linux-gnu -relocation-model=pic > %t
; RUN: grep {leal	i@TLSGD(,%ebx), %eax} %t
; RUN: grep {call	___tls_get_addr@PLT} %t
; RUN: llvm-as < %s | llc -march=x86-64 -mtriple=x86_64-linux-gnu -relocation-model=pic > %t2
; RUN: grep {leaq	i@TLSGD(%rip), %rdi} %t2
; RUN: grep {call	__tls_get_addr@PLT} %t2

@i = external thread_local global i32		; <i32*> [#uses=2]

define i32* @f() {
entry:
	ret i32* @i
}
